<?xml version="1.0" encoding="UTF-8" standalone="no"?>
<!-- Generator: Adobe Illustrator 19.0.0, SVG Export Plug-In . SVG Version: 6.00 Build 0)  -->

<svg
   xmlns:dc="http://purl.org/dc/elements/1.1/"
   xmlns:cc="http://creativecommons.org/ns#"
   xmlns:rdf="http://www.w3.org/1999/02/22-rdf-syntax-ns#"
   xmlns:svg="http://www.w3.org/2000/svg"
   xmlns="http://www.w3.org/2000/svg"
   xmlns:sodipodi="http://sodipodi.sourceforge.net/DTD/sodipodi-0.dtd"
   xmlns:inkscape="http://www.inkscape.org/namespaces/inkscape"
   version="1.1"
   id="Layer_1"
   x="0px"
   y="0px"
   viewBox="0 0 512 512"
   style="enable-background:new 0 0 512 512;"
   xml:space="preserve"
   inkscape:version="0.92.3 (2405546, 2018-03-11)"
   sodipodi:docname="ly11e-rotate-normal-black.svg"><metadata
     id="metadata47"><rdf:RDF><cc:Work
         rdf:about=""><dc:format>image/svg+xml</dc:format><dc:type
           rdf:resource="http://purl.org/dc/dcmitype/StillImage" /><dc:title></dc:title></cc:Work></rdf:RDF></metadata><defs
     id="defs45" /><sodipodi:namedview
     pagecolor="#ffffff"
     bordercolor="#666666"
     borderopacity="1"
     objecttolerance="10"
     gridtolerance="10"
     guidetolerance="10"
     inkscape:pageopacity="0"
     inkscape:pageshadow="2"
     inkscape:window-width="837"
     inkscape:window-height="614"
     id="namedview43"
     showgrid="false"
     inkscape:zoom="0.4609375"
     inkscape:cx="256"
     inkscape:cy="256"
     inkscape:window-x="527"
     inkscape:window-y="25"
     inkscape:window-maximized="0"
     inkscape:current-layer="Layer_1" /><g
     id="g3"
     transform="matrix(1,0,0,-1,0,512)"
     style="fill:#000000"><g
       id="g5"
       style="fill:#000000"><g
         id="g7"
         style="fill:#000000"><path
           d="m 263.454,69.995 c -3.593,-4.574 -11.315,-4.574 -14.907,0 L 144.25,202.736 c -2.245,2.852 -2.662,6.736 -1.074,10 1.588,3.264 4.898,5.338 8.528,5.338 h 47.407 v 208.593 c 0,5.236 4.245,9.481 9.482,9.481 h 94.815 c 5.236,0 9.482,-4.245 9.482,-9.481 V 218.074 h 47.407 c 3.63,0 6.94,-2.074 8.528,-5.338 1.588,-3.264 1.171,-7.148 -1.074,-10 z m 39.953,129.116 c -5.236,0 -9.482,4.245 -9.482,9.482 V 417.186 H 218.073 V 208.593 c 0,-5.236 -4.245,-9.482 -9.482,-9.482 h -37.38 L 256,91.199 340.787,199.111 Z"
           id="path9"
           inkscape:connector-curvature="0"
           style="fill:#000000" /><path
           d="M 256,0 C 114.843,0 0,114.843 0,256 0,397.157 114.843,512 256,512 397.157,512 512,397.157 512,256 512,114.843 397.157,0 256,0 Z m 0,493.037 C 125.296,493.037 18.963,386.704 18.963,256 18.963,125.296 125.296,18.963 256,18.963 386.704,18.963 493.037,125.296 493.037,256 493.037,386.704 386.704,493.037 256,493.037 Z"
           id="path11"
           inkscape:connector-curvature="0"
           style="fill:#000000;stroke:#000000" /></g></g></g><g
     id="g13" /><g
     id="g15" /><g
     id="g17" /><g
     id="g19" /><g
     id="g21" /><g
     id="g23" /><g
     id="g25" /><g
     id="g27" /><g
     id="g29" /><g
     id="g31" /><g
     id="g33" /><g
     id="g35" /><g
     id="g37" /><g
     id="g39" /><g
     id="g41" /></svg>